data/wzh_test/arith.vcd
$date
	Fri Jan 12 13:43:44 2018
$end
$version
	Icarus Verilog
$end
$timescale
	1ps
$end
$scope module riscv_min_sooc_tb $end
$var reg 1 ! CLOCK_50 $end
$var reg 1 " rst $end
$scope module riscv_min_sopc0 $end
$var wire 1 ! clk $end
$var wire 1 " rst $end
$var wire 1 # rom_ce $end
$var wire 1 $ mem_we_i $end
$var wire 4 % mem_sel_i [3:0] $end
$var wire 32 & mem_data_o [31:0] $end
$var wire 32 ' mem_data_i [31:0] $end
$var wire 1 ( mem_ce_i $end
$var wire 32 ) mem_addr_i [31:0] $end
$var wire 32 * inst_addr [31:0] $end
$var wire 32 + inst [31:0] $end
$scope module inst_rom_data_ram0 $end
$var wire 1 ! clk $end
$var wire 1 # rom_ce $end
$var wire 32 , rom_addr [31:0] $end
$var wire 1 $ ram_we $end
$var wire 4 - ram_sel [3:0] $end
$var wire 32 . ram_data_i [31:0] $end
$var wire 1 ( ram_ce $end
$var wire 32 / ram_addr [31:0] $end
$var reg 32 0 ram_data_o [31:0] $end
$var reg 32 1 rom_inst [31:0] $end
$var integer 32 2 i [31:0] $end
$upscope $end
$scope module riscv0 $end
$var wire 1 ! clk $end
$var wire 32 3 ram_data_i [31:0] $end
$var wire 32 4 rom_addr_o [31:0] $end
$var wire 32 5 rom_data_i [31:0] $end
$var wire 1 " rst $end
$var wire 1 6 wb_wreg_i $end
$var wire 32 7 wb_wdata_i [31:0] $end
$var wire 5 8 wb_wd_i [4:0] $end
$var wire 1 9 stallreq_from_load $end
$var wire 1 : stallreq_from_jump_branch $end
$var wire 6 ; stall [5:0] $end
$var wire 1 # rom_ce_o $end
$var wire 2 < reg2_read [1:0] $end
$var wire 32 = reg2_data [31:0] $end
$var wire 5 > reg2_addr [4:0] $end
$var wire 2 ? reg1_read [1:0] $end
$var wire 32 @ reg1_data [31:0] $end
$var wire 5 A reg1_addr [4:0] $end
$var wire 1 $ ram_we_o $end
$var wire 4 B ram_sel_o [3:0] $end
$var wire 32 C ram_data_o [31:0] $end
$var wire 1 ( ram_ce_o $end
$var wire 32 D ram_addr_o [31:0] $end
$var wire 32 E pc [31:0] $end
$var wire 1 F mem_wreg_o $end
$var wire 1 G mem_wreg_i $end
$var wire 32 H mem_wdata_o [31:0] $end
$var wire 32 I mem_wdata_i [31:0] $end
$var wire 5 J mem_wd_o [4:0] $end
$var wire 5 K mem_wd_i [4:0] $end
$var wire 32 L mem_reg2_i [31:0] $end
$var wire 32 M mem_mem_addr_i [31:0] $end
$var wire 8 N mem_aluop_i [7:0] $end
$var wire 1 O id_wreg_o $end
$var wire 5 P id_wd_o [4:0] $end
$var wire 32 Q id_reg2_o [31:0] $end
$var wire 32 R id_reg1_o [31:0] $end
$var wire 32 S id_pc_i [31:0] $end
$var wire 32 T id_link_address_o [31:0] $end
$var wire 32 U id_inst_o [31:0] $end
$var wire 32 V id_inst_i [31:0] $end
$var wire 1 W id_branch_flag_o $end
$var wire 3 X id_alusel_o [2:0] $end
$var wire 8 Y id_aluop_o [7:0] $end
$var wire 1 Z ex_wreg_o $end
$var wire 1 [ ex_wreg_i $end
$var wire 32 \ ex_wdata_o [31:0] $end
$var wire 5 ] ex_wd_o [4:0] $end
$var wire 5 ^ ex_wd_i [4:0] $end
$var wire 32 _ ex_reg2_o [31:0] $end
$var wire 32 ` ex_reg2_i [31:0] $end
$var wire 32 a ex_reg1_i [31:0] $end
$var wire 32 b ex_mem_addr_o [31:0] $end
$var wire 32 c ex_link_address_i [31:0] $end
$var wire 1 d ex_is_load_o $end
$var wire 32 e ex_inst_i [31:0] $end
$var wire 3 f ex_alusel_i [2:0] $end
$var wire 8 g ex_aluop_o [7:0] $end
$var wire 8 h ex_aluop_i [7:0] $end
$var wire 32 i branch_target_address [31:0] $end
$scope module ctrl0 $end
$var wire 1 " rst $end
$var wire 1 9 stallreq_from_load $end
$var wire 1 : stallreq_from_jump_branch $end
$var reg 6 j stall [5:0] $end
$upscope $end
$scope module ex0 $end
$var wire 8 k aluop_o [7:0] $end
$var wire 32 l reg2_o [31:0] $end
$var wire 1 " rst $end
$var wire 1 [ wreg_i $end
$var wire 5 m wd_i [4:0] $end
$var wire 32 n result_sum [31:0] $end
$var wire 32 o reg2_i_mux [31:0] $end
$var wire 32 p reg2_i [31:0] $end
$var wire 1 q reg1_lt_reg2 $end
$var wire 32 r reg1_i [31:0] $end
$var wire 32 s mem_addr_o [31:0] $end
$var wire 32 t link_address_i [31:0] $end
$var wire 1 d is_load_o $end
$var wire 32 u inst_i [31:0] $end
$var wire 3 v alusel_i [2:0] $end
$var wire 8 w aluop_i [7:0] $end
$var reg 32 x arithmeticres [31:0] $end
$var reg 32 y logicout [31:0] $end
$var reg 32 z shiftres [31:0] $end
$var reg 5 { wd_o [4:0] $end
$var reg 32 | wdata_o [31:0] $end
$var reg 1 Z wreg_o $end
$upscope $end
$scope module ex_mem0 $end
$var wire 1 ! clk $end
$var wire 8 } ex_aluop [7:0] $end
$var wire 32 ~ ex_mem_addr [31:0] $end
$var wire 32 !" ex_reg2 [31:0] $end
$var wire 5 "" ex_wd [4:0] $end
$var wire 32 #" ex_wdata [31:0] $end
$var wire 1 Z ex_wreg $end
$var wire 1 " rst $end
$var wire 6 $" stall [5:0] $end
$var reg 8 %" mem_aluop [7:0] $end
$var reg 32 &" mem_mem_addr [31:0] $end
$var reg 32 '" mem_reg2 [31:0] $end
$var reg 5 (" mem_wd [4:0] $end
$var reg 32 )" mem_wdata [31:0] $end
$var reg 1 G mem_wreg $end
$upscope $end
$scope module id0 $end
$var wire 1 d ex_is_load_i $end
$var wire 5 *" ex_wd_i [4:0] $end
$var wire 32 +" ex_wdata_i [31:0] $end
$var wire 1 Z ex_wreg_i $end
$var wire 32 ," inst_o [31:0] $end
$var wire 1 " rst $end
$var wire 32 -" u_type_imm [31:0] $end
$var wire 32 ." s_type_imm [31:0] $end
$var wire 5 /" rs2_addr [4:0] $end
$var wire 5 0" rs1_addr [4:0] $end
$var wire 32 1" reg2_data_i [31:0] $end
$var wire 32 2" reg1_data_i [31:0] $end
$var wire 5 3" rd_addr [4:0] $end
$var wire 32 4" pc_plus_j_type_imm [31:0] $end
$var wire 32 5" pc_plus_i_type_imm [31:0] $end
$var wire 32 6" pc_plus_8 [31:0] $end
$var wire 32 7" pc_plus_4 [31:0] $end
$var wire 32 8" pc_i [31:0] $end
$var wire 7 9" opcode [6:0] $end
$var wire 1 F mem_wreg_i $end
$var wire 32 :" mem_wdata_i [31:0] $end
$var wire 5 ;" mem_wd_i [4:0] $end
$var wire 32 <" j_type_imm [31:0] $end
$var wire 32 =" inst_i [31:0] $end
$var wire 32 >" i_type_imm [31:0] $end
$var wire 7 ?" funct7 [6:0] $end
$var wire 3 @" funct3 [2:0] $end
$var wire 32 A" b_type_imm [31:0] $end
$var reg 8 B" aluop_o [7:0] $end
$var reg 3 C" alusel_o [2:0] $end
$var reg 1 W branch_flag_o $end
$var reg 32 D" branch_target_address_o [31:0] $end
$var reg 32 E" imm [31:0] $end
$var reg 1 F" instvalid $end
$var reg 32 G" link_addr_o [31:0] $end
$var reg 5 H" reg1_addr_o [4:0] $end
$var reg 32 I" reg1_o [31:0] $end
$var reg 2 J" reg1_read_o [1:0] $end
$var reg 5 K" reg2_addr_o [4:0] $end
$var reg 32 L" reg2_o [31:0] $end
$var reg 2 M" reg2_read_o [1:0] $end
$var reg 1 N" stallreq_for_reg1 $end
$var reg 1 O" stallreq_for_reg2 $end
$var reg 1 : stallreq_from_jump_branch $end
$var reg 1 9 stallreq_from_load $end
$var reg 5 P" wd_o [4:0] $end
$var reg 1 O wreg_o $end
$upscope $end
$scope module id_ex0 $end
$var wire 1 ! clk $end
$var wire 8 Q" id_aluop [7:0] $end
$var wire 3 R" id_alusel [2:0] $end
$var wire 32 S" id_inst [31:0] $end
$var wire 32 T" id_link_address [31:0] $end
$var wire 32 U" id_reg1 [31:0] $end
$var wire 32 V" id_reg2 [31:0] $end
$var wire 5 W" id_wd [4:0] $end
$var wire 1 O id_wreg $end
$var wire 1 " rst $end
$var wire 6 X" stall [5:0] $end
$var reg 8 Y" ex_aluop [7:0] $end
$var reg 3 Z" ex_alusel [2:0] $end
$var reg 32 [" ex_inst [31:0] $end
$var reg 32 \" ex_link_address [31:0] $end
$var reg 32 ]" ex_reg1 [31:0] $end
$var reg 32 ^" ex_reg2 [31:0] $end
$var reg 5 _" ex_wd [4:0] $end
$var reg 1 [ ex_wreg $end
$upscope $end
$scope module if_id0 $end
$var wire 1 ! clk $end
$var wire 32 `" if_inst [31:0] $end
$var wire 1 " rst $end
$var wire 6 a" stall [5:0] $end
$var wire 32 b" if_pc [31:0] $end
$var reg 32 c" id_inst [31:0] $end
$var reg 32 d" id_pc [31:0] $end
$upscope $end
$scope module mem1 $end
$var wire 8 e" aluop_i [7:0] $end
$var wire 32 f" mem_addr_i [31:0] $end
$var wire 32 g" mem_data_i [31:0] $end
$var wire 32 h" reg2_i [31:0] $end
$var wire 1 " rst $end
$var wire 5 i" wd_i [4:0] $end
$var wire 32 j" wdata_i [31:0] $end
$var wire 1 G wreg_i $end
$var reg 32 k" mem_addr_o [31:0] $end
$var reg 1 ( mem_ce_o $end
$var reg 32 l" mem_data_o [31:0] $end
$var reg 4 m" mem_sel_o [3:0] $end
$var reg 1 $ mem_we_o $end
$var reg 5 n" wd_o [4:0] $end
$var reg 32 o" wdata_o [31:0] $end
$var reg 1 F wreg_o $end
$upscope $end
$scope module mem_wb0 $end
$var wire 1 ! clk $end
$var wire 5 p" mem_wd [4:0] $end
$var wire 32 q" mem_wdata [31:0] $end
$var wire 1 F mem_wreg $end
$var wire 1 " rst $end
$var wire 6 r" stall [5:0] $end
$var reg 5 s" wb_wd [4:0] $end
$var reg 32 t" wb_wdata [31:0] $end
$var reg 1 6 wb_wreg $end
$upscope $end
$scope module pc_reg0 $end
$var wire 1 W branch_flag_i $end
$var wire 32 u" branch_target_address_i [31:0] $end
$var wire 1 ! clk $end
$var wire 1 " rst $end
$var wire 6 v" stall [5:0] $end
$var reg 1 # ce $end
$var reg 32 w" pc [31:0] $end
$upscope $end
$scope module regfile0 $end
$var wire 1 ! clk $end
$var wire 5 x" raddr1 [4:0] $end
$var wire 5 y" raddr2 [4:0] $end
$var wire 2 z" re1 [1:0] $end
$var wire 2 {" re2 [1:0] $end
$var wire 1 " rst $end
$var wire 5 |" waddr [4:0] $end
$var wire 32 }" wdata [31:0] $end
$var wire 1 6 we $end
$var reg 32 ~" rdata1 [31:0] $end
$var reg 32 !# rdata2 [31:0] $end
$upscope $end
$upscope $end
$upscope $end
$upscope $end
$enddefinitions $end
#0
$dumpvars
b0 !#
b0 ~"
bx }"
bx |"
b1 {"
b1 z"
b0 y"
b0 x"
bx w"
b0 v"
b0 u"
bx t"
bx s"
b0 r"
b0 q"
b0 p"
b0 o"
b0 n"
b0 m"
b0 l"
b0 k"
bx j"
bx i"
bx h"
b0 g"
bx f"
bx e"
bx d"
bx c"
bx b"
b0 a"
bx `"
bx _"
bx ^"
bx ]"
bx \"
bx ["
bx Z"
bx Y"
b0 X"
b0 W"
b0 V"
b0 U"
b0 T"
bx S"
b0 R"
b0 Q"
b0 P"
0O"
0N"
b1 M"
b0 L"
b0 K"
b1 J"
b0 I"
b0 H"
b0 G"
0F"
b0 E"
b0 D"
b0 C"
b0 B"
bx0 A"
bx @"
bx ?"
bx >"
bx ="
bx0 <"
b0 ;"
b0 :"
bx 9"
bx 8"
bx 7"
bx 6"
bx 5"
bx 4"
bx 3"
b0 2"
b0 1"
bx 0"
bx /"
bx ."
bx000000000000 -"
bx ,"
b0 +"
bx *"
bx )"
bx ("
bx '"
bx &"
bx %"
b0 $"
b0 #"
bx ""
bx !"
bx ~
bx }
b0 |
bx {
b0 z
b0 y
b0 x
bx w
bx v
bx u
bx t
bx s
bx r
xq
bx p
bx o
bx n
bx m
bx l
bx k
b0 j
b0 i
bx h
bx g
bx f
bx e
xd
bx c
bx b
bx a
bx `
bx _
bx ^
bx ]
b0 \
x[
xZ
b0 Y
b0 X
0W
bx V
bx U
b0 T
bx S
b0 R
b0 Q
b0 P
0O
bx N
bx M
bx L
bx K
b0 J
bx I
b0 H
xG
0F
bx E
b0 D
b0 C
b0 B
b0 A
b0 @
b1 ?
b0 >
b0 =
b1 <
b0 ;
0:
09
bx 8
bx 7
x6
bx 5
bx 4
b0 3
b1000000000000 2
bx 1
b0 0
b0 /
b0 .
b0 -
bx ,
bx +
bx *
b0 )
0(
b0 '
b0 &
b0 %
0$
x#
1"
0!
$end
#10000
b0 +
b0 1
b0 5
b0 `"
0Z
b0 ]
b0 {
b0 ""
b0 *"
b0 4"
b0 <"
b0 -"
b0 A"
b0 ."
b0 5"
b0 >"
b0 9"
b0 3"
b0 @"
b0 0"
b0 /"
b0 ?"
b0 n
b0 o
0q
0#
b0 U
b0 ,"
b0 S"
b0 V
b0 ="
b0 c"
b100 7"
b1000 6"
b0 S
b0 8"
b0 d"
0[
b0 ^
b0 m
b0 _"
b0 _
b0 l
b0 !"
b0 `
b0 p
b0 ^"
b0 a
b0 r
b0 ]"
b0 f
b0 v
b0 Z"
b0 g
b0 k
b0 }
b0 h
b0 w
b0 Y"
b0 L
b0 '"
b0 h"
b0 M
b0 &"
b0 f"
b0 N
b0 %"
b0 e"
b0 I
b0 )"
b0 j"
0G
b0 K
b0 ("
b0 i"
b0 7
b0 t"
b0 }"
06
b0 8
b0 s"
b0 |"
1!
#20000
0!
#30000
b0 *
b0 ,
b0 4
b0 E
b0 b"
b0 w"
1!
#40000
0!
#50000
1!
#60000
0!
#70000
1!
#80000
0!
#90000
1!
#100000
0!
#110000
1!
#120000
0!
#130000
1!
#140000
0!
#150000
1!
#160000
0!
#170000
1!
#180000
0!
#190000
1!
#195000
1F"
0"
#200000
0!
#210000
b10000000000000000000000010110111 +
b10000000000000000000000010110111 1
b10000000000000000000000010110111 5
b10000000000000000000000010110111 `"
0d
b0 b
b0 s
b0 ~
1#
b0 e
b0 u
b0 ["
b0 c
b0 t
b0 \"
bx M
bx &"
bx f"
1!
#220000
0!
#230000
b10000000000000000000000000000000 Q
b10000000000000000000000000000000 L"
b10000000000000000000000000000000 V"
0F"
b10000000000000000000000000000000 E"
b11 ?
b11 J"
b11 z"
b1 X
b1 C"
b1 R"
b10 Y
b10 B"
b10 Q"
1O
b1 P
b1 P"
b1 W"
b1000000001110000010010011 +
b1000000001110000010010011 1
b1000000001110000010010011 5
b1000000001110000010010011 `"
b11111111111100000000000000000000 4"
b11111111111100000000000000000000 <"
b10000000000000000000000000000000 -"
b11111111111111111111100000000000 A"
b11111111111111111111100000000001 ."
b11111111111111111111100000000000 5"
b11111111111111111111100000000000 >"
b110111 9"
b1 3"
b1000000 ?"
b0 M
b0 &"
b0 f"
b10000000000000000000000010110111 U
b10000000000000000000000010110111 ,"
b10000000000000000000000010110111 S"
b10000000000000000000000010110111 V
b10000000000000000000000010110111 ="
b10000000000000000000000010110111 c"
b100 *
b100 ,
b100 4
b100 E
b100 b"
b100 w"
1!
#240000
0!
#250000
b10000000000000000000000000000000 R
b10000000000000000000000000000000 I"
b10000000000000000000000000000000 U"
bx @
bx 2"
bx ~"
b10000 Q
b10000 L"
b10000 V"
b10000000000000000000000000000000 \
b10000000000000000000000000000000 |
b10000000000000000000000000000000 #"
b10000000000000000000000000000000 +"
b10000 >
b10000 K"
b10000 y"
b1 A
b1 H"
b1 x"
b10000000000000000000000100110111 +
b10000000000000000000000100110111 1
b10000000000000000000000100110111 5
b10000000000000000000000100110111 `"
b10000 E"
b0 ?
b0 J"
b0 z"
0F"
1O
b1 X
b1 C"
b1 R"
b10 Y
b10 B"
b10 Q"
1Z
b1 ]
b1 {
b1 ""
b1 *"
b10000000000000000000000000000000 y
b11111111111111111111100000000001 b
b11111111111111111111100000000001 s
b11111111111111111111100000000001 ~
b1110000000010000 <"
b1000000001110000000000000 -"
b100000000000 A"
b1 ."
b10000 >"
b10011 9"
b110 @"
b1 0"
b10000 /"
b0 ?"
1q
b10000000000000000000000000000000 n
b10000000000000000000000000000000 o
b1000 *
b1000 ,
b1000 4
b1000 E
b1000 b"
b1000 w"
b1000000001110000010010011 U
b1000000001110000010010011 ,"
b1000000001110000010010011 S"
b1000000001110000010010011 V
b1000000001110000010010011 ="
b1000000001110000010010011 c"
b1110000000010100 4"
b10100 5"
b1000 7"
b1100 6"
b100 S
b100 8"
b100 d"
b10000000000000000000000010110111 e
b10000000000000000000000010110111 u
b10000000000000000000000010110111 ["
1[
b1 ^
b1 m
b1 _"
b10000000000000000000000000000000 _
b10000000000000000000000000000000 l
b10000000000000000000000000000000 !"
b10000000000000000000000000000000 `
b10000000000000000000000000000000 p
b10000000000000000000000000000000 ^"
b1 f
b1 v
b1 Z"
b10 g
b10 k
b10 }
b10 h
b10 w
b10 Y"
1!
#260000
0!
#270000
b10000000000000000000000000010000 \
b10000000000000000000000000010000 |
b10000000000000000000000000010000 #"
b10000000000000000000000000010000 +"
b10000000000000000000000000000000 Q
b10000000000000000000000000000000 L"
b10000000000000000000000000000000 V"
b0 R
b0 I"
b0 U"
b0 @
b0 2"
b0 ~"
b0 >
b0 K"
b0 y"
b0 A
b0 H"
b0 x"
b10 P
b10 P"
b10 W"
b10000000000000000000000000000000 H
b10000000000000000000000000000000 :"
b10000000000000000000000000000000 o"
b10000000000000000000000000000000 q"
1F
b1 J
b1 ;"
b1 n"
b1 p"
b10000000000000000000000000010000 y
b10000000000000000000000000000000 E"
b11 ?
b11 J"
b11 z"
0F"
1O
b1 X
b1 C"
b1 R"
b10 Y
b10 B"
b10 Q"
b100010110000100010011 +
b100010110000100010011 1
b100010110000100010011 5
b100010110000100010011 `"
b10000 o
0q
b11111111111100000000000000000000 <"
b10000000000000000000000000000000 -"
b11111111111111111111000000000010 A"
b11111111111111111111100000000010 ."
b11111111111111111111100000000000 >"
b110111 9"
b10 3"
b0 @"
b0 0"
b0 /"
b1000000 ?"
b10000000000000000000000000000000 L
b10000000000000000000000000000000 '"
b10000000000000000000000000000000 h"
b11111111111111111111100000000001 M
b11111111111111111111100000000001 &"
b11111111111111111111100000000001 f"
b10 N
b10 %"
b10 e"
b10000000000000000000000000000000 I
b10000000000000000000000000000000 )"
b10000000000000000000000000000000 j"
1G
b1 K
b1 ("
b1 i"
b1000000001110000010010011 e
b1000000001110000010010011 u
b1000000001110000010010011 ["
b10000 _
b10000 l
b10000 !"
b10000 `
b10000 p
b10000 ^"
b10000000000000000000000000010000 n
b10000000000000000000000000000001 b
b10000000000000000000000000000001 s
b10000000000000000000000000000001 ~
b10000000000000000000000000000000 a
b10000000000000000000000000000000 r
b10000000000000000000000000000000 ]"
b10000000000000000000000100110111 U
b10000000000000000000000100110111 ,"
b10000000000000000000000100110111 S"
b10000000000000000000000100110111 V
b10000000000000000000000100110111 ="
b10000000000000000000000100110111 c"
b11111111111100000000000000001000 4"
b11111111111111111111100000001000 5"
b1100 7"
b10000 6"
b1000 S
b1000 8"
b1000 d"
b1100 *
b1100 ,
b1100 4
b1100 E
b1100 b"
b1100 w"
1!
#280000
0!
#290000
bx @
bx 2"
bx ~"
b10000000000000000000000000000000 \
b10000000000000000000000000000000 |
b10000000000000000000000000000000 #"
b10000000000000000000000000000000 +"
b1 Q
b1 L"
b1 V"
b10000000000000000000000000000000 R
b10000000000000000000000000000000 I"
b10000000000000000000000000000000 U"
b1 >
b1 K"
b1 y"
b10 A
b10 H"
b10 x"
b100010000000110110011 +
b100010000000110110011 1
b100010000000110110011 5
b100010000000110110011 `"
b1 E"
b0 ?
b0 J"
b0 z"
0F"
1O
b1 X
b1 C"
b1 R"
b10 Y
b10 B"
b10 Q"
b10 ]
b10 {
b10 ""
b10 *"
b10000000000000000000000000000000 y
b10000000000000000000000000010000 H
b10000000000000000000000000010000 :"
b10000000000000000000000000010000 o"
b10000000000000000000000000010000 q"
b10110100000000000 <"
b100010110000000000000 -"
b10 A"
b10 ."
b1 >"
b10011 9"
b110 @"
b10 0"
b1 /"
b0 ?"
b10000000000000000000000000000000 o
1q
b10000 *
b10000 ,
b10000 4
b10000 E
b10000 b"
b10000 w"
b100010110000100010011 U
b100010110000100010011 ,"
b100010110000100010011 S"
b100010110000100010011 V
b100010110000100010011 ="
b100010110000100010011 c"
b10110100000001100 4"
b1101 5"
b10000 7"
b10100 6"
b1100 S
b1100 8"
b1100 d"
b10000000000000000000000100110111 e
b10000000000000000000000100110111 u
b10000000000000000000000100110111 ["
b10 ^
b10 m
b10 _"
b10000000000000000000000000000000 _
b10000000000000000000000000000000 l
b10000000000000000000000000000000 !"
b10000000000000000000000000000000 `
b10000000000000000000000000000000 p
b10000000000000000000000000000000 ^"
b10000000000000000000000000000000 n
b11111111111111111111100000000010 b
b11111111111111111111100000000010 s
b11111111111111111111100000000010 ~
b0 a
b0 r
b0 ]"
b10000 L
b10000 '"
b10000 h"
b10000000000000000000000000000001 M
b10000000000000000000000000000001 &"
b10000000000000000000000000000001 f"
b10000000000000000000000000010000 I
b10000000000000000000000000010000 )"
b10000000000000000000000000010000 j"
b10000000000000000000000000000000 7
b10000000000000000000000000000000 t"
b10000000000000000000000000000000 }"
16
b1 8
b1 s"
b1 |"
1!
#300000
0!
#310000
b10000000000000000000000000000001 R
b10000000000000000000000000000001 I"
b10000000000000000000000000000001 U"
b10000000000000000000000000010000 =
b10000000000000000000000000010000 1"
b10000000000000000000000000010000 !#
b10000000000000000000000000000001 \
b10000000000000000000000000000001 |
b10000000000000000000000000000001 #"
b10000000000000000000000000000001 +"
b10000000000000000000000000010000 Q
b10000000000000000000000000010000 L"
b10000000000000000000000000010000 V"
b0 <
b0 M"
b0 {"
b11 P
b11 P"
b11 W"
b10000000000000000000000000000000 H
b10000000000000000000000000000000 :"
b10000000000000000000000000000000 o"
b10000000000000000000000000000000 q"
b10 J
b10 ;"
b10 n"
b10 p"
b10000000000000000000000000000001 y
b0 E"
b0 ?
b0 J"
b0 z"
0F"
1O
b100 X
b100 C"
b100 R"
b1100 Y
b1100 B"
b1100 Q"
b1111111000011000000110010011 +
b1111111000011000000110010011 1
b1111111000011000000110010011 5
b1111111000011000000110010011 `"
b1 o
0q
b10000100000000000 <"
b100010000000000000000 -"
b100000000010 A"
b11 ."
b110011 9"
b11 3"
b0 @"
b10000000000000000000000000010000 7
b10000000000000000000000000010000 t"
b10000000000000000000000000010000 }"
b10000000000000000000000000000000 L
b10000000000000000000000000000000 '"
b10000000000000000000000000000000 h"
b11111111111111111111100000000010 M
b11111111111111111111100000000010 &"
b11111111111111111111100000000010 f"
b10000000000000000000000000000000 I
b10000000000000000000000000000000 )"
b10000000000000000000000000000000 j"
b10 K
b10 ("
b10 i"
b100010110000100010011 e
b100010110000100010011 u
b100010110000100010011 ["
b1 _
b1 l
b1 !"
b1 `
b1 p
b1 ^"
b10000000000000000000000000000001 n
b10000000000000000000000000000010 b
b10000000000000000000000000000010 s
b10000000000000000000000000000010 ~
b10000000000000000000000000000000 a
b10000000000000000000000000000000 r
b10000000000000000000000000000000 ]"
b100010000000110110011 U
b100010000000110110011 ,"
b100010000000110110011 S"
b100010000000110110011 V
b100010000000110110011 ="
b100010000000110110011 c"
b10000100000010000 4"
b10001 5"
b10100 7"
b11000 6"
b10000 S
b10000 8"
b10000 d"
b10100 *
b10100 ,
b10100 4
b10100 E
b10100 b"
b10100 w"
1!
#320000
0!
#330000
b0 =
b0 1"
b0 !#
b11111110 Q
b11111110 L"
b11111110 V"
b10001 R
b10001 I"
b10001 U"
b11111110 E"
b11110 >
b11110 K"
b11110 y"
b11 A
b11 H"
b11 x"
b1000011000000110110011 +
b1000011000000110110011 1
b1000011000000110110011 5
b1000011000000110110011 `"
b1 <
b1 M"
b1 {"
b0 ?
b0 J"
b0 z"
0F"
1O
b100 X
b100 C"
b100 R"
b1100 Y
b1100 B"
b1100 Q"
b10001 \
b10001 |
b10001 #"
b10001 +"
b11 ]
b11 {
b11 ""
b11 *"
b10001 x
b0 y
b10000000000000000000000000000001 H
b10000000000000000000000000000001 :"
b10000000000000000000000000000001 o"
b10000000000000000000000000000001 q"
bx @
bx 2"
bx ~"
b11000000011111110 <"
b1111111000011000000000000000 -"
b100011100010 A"
b11100011 ."
b11111110 >"
b10011 9"
b11 0"
b11110 /"
b111 ?"
1q
b10000000000000000000000000010000 o
b11000 *
b11000 ,
b11000 4
b11000 E
b11000 b"
b11000 w"
b1111111000011000000110010011 U
b1111111000011000000110010011 ,"
b1111111000011000000110010011 S"
b1111111000011000000110010011 V
b1111111000011000000110010011 ="
b1111111000011000000110010011 c"
b11000000100010010 4"
b100010010 5"
b11000 7"
b11100 6"
b10100 S
b10100 8"
b10100 d"
b100010000000110110011 e
b100010000000110110011 u
b100010000000110110011 ["
b11 ^
b11 m
b11 _"
b10000000000000000000000000010000 _
b10000000000000000000000000010000 l
b10000000000000000000000000010000 !"
b10000000000000000000000000010000 `
b10000000000000000000000000010000 p
b10000000000000000000000000010000 ^"
b10001 n
b10000000000000000000000000000100 b
b10000000000000000000000000000100 s
b10000000000000000000000000000100 ~
b10000000000000000000000000000001 a
b10000000000000000000000000000001 r
b10000000000000000000000000000001 ]"
b100 f
b100 v
b100 Z"
b1100 g
b1100 k
b1100 }
b1100 h
b1100 w
b1100 Y"
b1 L
b1 '"
b1 h"
b10000000000000000000000000000010 M
b10000000000000000000000000000010 &"
b10000000000000000000000000000010 f"
b10000000000000000000000000000001 I
b10000000000000000000000000000001 )"
b10000000000000000000000000000001 j"
b10000000000000000000000000000000 7
b10000000000000000000000000000000 t"
b10000000000000000000000000000000 }"
b10 8
b10 s"
b10 |"
1!
#340000
0!
#350000
b100001111 R
b100001111 I"
b100001111 U"
b10000000000000000000000000000001 =
b10000000000000000000000000000001 1"
b10000000000000000000000000000001 !#
b100001111 \
b100001111 |
b100001111 #"
b100001111 +"
b10000000000000000000000000000001 Q
b10000000000000000000000000000001 L"
b10000000000000000000000000000001 V"
b0 <
b0 M"
b0 {"
b10 >
b10 K"
b10 y"
b10001 H
b10001 :"
b10001 o"
b10001 q"
b11 J
b11 ;"
b11 n"
b11 p"
b100001111 x
b0 E"
b0 ?
b0 J"
b0 z"
0F"
1O
b100 X
b100 C"
b100 R"
b1100 Y
b1100 B"
b1100 Q"
b1000000001000011000000110110011 +
b1000000001000011000000110110011 1
b1000000001000011000000110110011 5
b1000000001000011000000110110011 `"
b11111110 o
b11000000000000010 <"
b1000011000000000000000 -"
b100000000010 A"
b11 ."
b10 >"
b110011 9"
b10 /"
b0 ?"
b10000000000000000000000000000001 7
b10000000000000000000000000000001 t"
b10000000000000000000000000000001 }"
b10000000000000000000000000010000 L
b10000000000000000000000000010000 '"
b10000000000000000000000000010000 h"
b10000000000000000000000000000100 M
b10000000000000000000000000000100 &"
b10000000000000000000000000000100 f"
b1100 N
b1100 %"
b1100 e"
b10001 I
b10001 )"
b10001 j"
b11 K
b11 ("
b11 i"
b1111111000011000000110010011 e
b1111111000011000000110010011 u
b1111111000011000000110010011 ["
b11111110 _
b11111110 l
b11111110 !"
b11111110 `
b11111110 p
b11111110 ^"
b100001111 n
b11110100 b
b11110100 s
b11110100 ~
b10001 a
b10001 r
b10001 ]"
b1000011000000110110011 U
b1000011000000110110011 ,"
b1000011000000110110011 S"
b1000011000000110110011 V
b1000011000000110110011 ="
b1000011000000110110011 c"
b11000000000011010 4"
b11010 5"
b11100 7"
b100000 6"
b11000 S
b11000 8"
b11000 d"
b11100 *
b11100 ,
b11100 4
b11100 E
b11100 b"
b11100 w"
1!
#360000
0!
#370000
b10000000000000000000000100010000 R
b10000000000000000000000100010000 I"
b10000000000000000000000100010000 U"
b10000000000000000000000100010000 \
b10000000000000000000000100010000 |
b10000000000000000000000100010000 #"
b10000000000000000000000100010000 +"
b11111111111111110000000010110111 +
b11111111111111110000000010110111 1
b11111111111111110000000010110111 5
b11111111111111110000000010110111 `"
b0 <
b0 M"
b0 {"
b0 ?
b0 J"
b0 z"
0F"
1O
b100 X
b100 C"
b100 R"
b1101 Y
b1101 B"
b1101 Q"
b10000000000000000000000100010000 x
b100001111 H
b100001111 :"
b100001111 o"
b100001111 q"
b10001 @
b10001 2"
b10001 ~"
b11000010000000010 <"
b1000000001000011000000000000000 -"
b110000000010 A"
b10000000011 ."
b10000000010 >"
b100000 ?"
b10000000000000000000000000000001 o
b100000 *
b100000 ,
b100000 4
b100000 E
b100000 b"
b100000 w"
b1000000001000011000000110110011 U
b1000000001000011000000110110011 ,"
b1000000001000011000000110110011 S"
b1000000001000011000000110110011 V
b1000000001000011000000110110011 ="
b1000000001000011000000110110011 c"
b11000010000011110 4"
b10000011110 5"
b100000 7"
b100100 6"
b11100 S
b11100 8"
b11100 d"
b1000011000000110110011 e
b1000011000000110110011 u
b1000011000000110110011 ["
b10000000000000000000000000000001 _
b10000000000000000000000000000001 l
b10000000000000000000000000000001 !"
b10000000000000000000000000000001 `
b10000000000000000000000000000001 p
b10000000000000000000000000000001 ^"
b10000000000000000000000100010000 n
b100010010 b
b100010010 s
b100010010 ~
b100001111 a
b100001111 r
b100001111 ]"
b11111110 L
b11111110 '"
b11111110 h"
b11110100 M
b11110100 &"
b11110100 f"
b100001111 I
b100001111 )"
b100001111 j"
b10001 7
b10001 t"
b10001 }"
b11 8
b11 s"
b11 |"
1!
#380000
0!
