data/fz_test/fz.vcd
$date
	Fri Jan 12 13:51:21 2018
$end
$version
	Icarus Verilog
$end
$timescale
	1ps
$end
$scope module riscv_min_sooc_tb $end
$var reg 1 ! CLOCK_50 $end
$var reg 1 " rst $end
$scope module riscv_min_sopc0 $end
$var wire 1 ! clk $end
$var wire 1 " rst $end
$var wire 1 # rom_ce $end
$var wire 1 $ mem_we_i $end
$var wire 4 % mem_sel_i [3:0] $end
$var wire 32 & mem_data_o [31:0] $end
$var wire 32 ' mem_data_i [31:0] $end
$var wire 1 ( mem_ce_i $end
$var wire 32 ) mem_addr_i [31:0] $end
$var wire 32 * inst_addr [31:0] $end
$var wire 32 + inst [31:0] $end
$scope module inst_rom_data_ram0 $end
$var wire 1 ! clk $end
$var wire 1 # rom_ce $end
$var wire 32 , rom_addr [31:0] $end
$var wire 1 $ ram_we $end
$var wire 4 - ram_sel [3:0] $end
$var wire 32 . ram_data_i [31:0] $end
$var wire 1 ( ram_ce $end
$var wire 32 / ram_addr [31:0] $end
$var reg 32 0 ram_data_o [31:0] $end
$var reg 32 1 rom_inst [31:0] $end
$var integer 32 2 i [31:0] $end
$upscope $end
$scope module riscv0 $end
$var wire 1 ! clk $end
$var wire 32 3 ram_data_i [31:0] $end
$var wire 32 4 rom_addr_o [31:0] $end
$var wire 32 5 rom_data_i [31:0] $end
$var wire 1 " rst $end
$var wire 1 6 wb_wreg_i $end
$var wire 32 7 wb_wdata_i [31:0] $end
$var wire 5 8 wb_wd_i [4:0] $end
$var wire 1 9 stallreq_from_load $end
$var wire 1 : stallreq_from_jump_branch $end
$var wire 6 ; stall [5:0] $end
$var wire 1 # rom_ce_o $end
$var wire 2 < reg2_read [1:0] $end
$var wire 32 = reg2_data [31:0] $end
$var wire 5 > reg2_addr [4:0] $end
$var wire 2 ? reg1_read [1:0] $end
$var wire 32 @ reg1_data [31:0] $end
$var wire 5 A reg1_addr [4:0] $end
$var wire 1 $ ram_we_o $end
$var wire 4 B ram_sel_o [3:0] $end
$var wire 32 C ram_data_o [31:0] $end
$var wire 1 ( ram_ce_o $end
$var wire 32 D ram_addr_o [31:0] $end
$var wire 32 E pc [31:0] $end
$var wire 1 F mem_wreg_o $end
$var wire 1 G mem_wreg_i $end
$var wire 32 H mem_wdata_o [31:0] $end
$var wire 32 I mem_wdata_i [31:0] $end
$var wire 5 J mem_wd_o [4:0] $end
$var wire 5 K mem_wd_i [4:0] $end
$var wire 32 L mem_reg2_i [31:0] $end
$var wire 32 M mem_mem_addr_i [31:0] $end
$var wire 8 N mem_aluop_i [7:0] $end
$var wire 1 O id_wreg_o $end
$var wire 5 P id_wd_o [4:0] $end
$var wire 32 Q id_reg2_o [31:0] $end
$var wire 32 R id_reg1_o [31:0] $end
$var wire 32 S id_pc_i [31:0] $end
$var wire 32 T id_link_address_o [31:0] $end
$var wire 32 U id_inst_o [31:0] $end
$var wire 32 V id_inst_i [31:0] $end
$var wire 1 W id_branch_flag_o $end
$var wire 3 X id_alusel_o [2:0] $end
$var wire 8 Y id_aluop_o [7:0] $end
$var wire 1 Z ex_wreg_o $end
$var wire 1 [ ex_wreg_i $end
$var wire 32 \ ex_wdata_o [31:0] $end
$var wire 5 ] ex_wd_o [4:0] $end
$var wire 5 ^ ex_wd_i [4:0] $end
$var wire 32 _ ex_reg2_o [31:0] $end
$var wire 32 ` ex_reg2_i [31:0] $end
$var wire 32 a ex_reg1_i [31:0] $end
$var wire 32 b ex_mem_addr_o [31:0] $end
$var wire 32 c ex_link_address_i [31:0] $end
$var wire 1 d ex_is_load_o $end
$var wire 32 e ex_inst_i [31:0] $end
$var wire 3 f ex_alusel_i [2:0] $end
$var wire 8 g ex_aluop_o [7:0] $end
$var wire 8 h ex_aluop_i [7:0] $end
$var wire 32 i branch_target_address [31:0] $end
$scope module ctrl0 $end
$var wire 1 " rst $end
$var wire 1 9 stallreq_from_load $end
$var wire 1 : stallreq_from_jump_branch $end
$var reg 6 j stall [5:0] $end
$upscope $end
$scope module ex0 $end
$var wire 8 k aluop_o [7:0] $end
$var wire 32 l reg2_o [31:0] $end
$var wire 1 " rst $end
$var wire 1 [ wreg_i $end
$var wire 5 m wd_i [4:0] $end
$var wire 32 n result_sum [31:0] $end
$var wire 32 o reg2_i_mux [31:0] $end
$var wire 32 p reg2_i [31:0] $end
$var wire 1 q reg1_lt_reg2 $end
$var wire 32 r reg1_i [31:0] $end
$var wire 32 s mem_addr_o [31:0] $end
$var wire 32 t link_address_i [31:0] $end
$var wire 1 d is_load_o $end
$var wire 32 u inst_i [31:0] $end
$var wire 3 v alusel_i [2:0] $end
$var wire 8 w aluop_i [7:0] $end
$var reg 32 x arithmeticres [31:0] $end
$var reg 32 y logicout [31:0] $end
$var reg 32 z shiftres [31:0] $end
$var reg 5 { wd_o [4:0] $end
$var reg 32 | wdata_o [31:0] $end
$var reg 1 Z wreg_o $end
$upscope $end
$scope module ex_mem0 $end
$var wire 1 ! clk $end
$var wire 8 } ex_aluop [7:0] $end
$var wire 32 ~ ex_mem_addr [31:0] $end
$var wire 32 !" ex_reg2 [31:0] $end
$var wire 5 "" ex_wd [4:0] $end
$var wire 32 #" ex_wdata [31:0] $end
$var wire 1 Z ex_wreg $end
$var wire 1 " rst $end
$var wire 6 $" stall [5:0] $end
$var reg 8 %" mem_aluop [7:0] $end
$var reg 32 &" mem_mem_addr [31:0] $end
$var reg 32 '" mem_reg2 [31:0] $end
$var reg 5 (" mem_wd [4:0] $end
$var reg 32 )" mem_wdata [31:0] $end
$var reg 1 G mem_wreg $end
$upscope $end
$scope module id0 $end
$var wire 1 d ex_is_load_i $end
$var wire 5 *" ex_wd_i [4:0] $end
$var wire 32 +" ex_wdata_i [31:0] $end
$var wire 1 Z ex_wreg_i $end
$var wire 32 ," inst_o [31:0] $end
$var wire 1 " rst $end
$var wire 32 -" u_type_imm [31:0] $end
$var wire 32 ." s_type_imm [31:0] $end
$var wire 5 /" rs2_addr [4:0] $end
$var wire 5 0" rs1_addr [4:0] $end
$var wire 32 1" reg2_data_i [31:0] $end
$var wire 32 2" reg1_data_i [31:0] $end
$var wire 5 3" rd_addr [4:0] $end
$var wire 32 4" pc_plus_j_type_imm [31:0] $end
$var wire 32 5" pc_plus_i_type_imm [31:0] $end
$var wire 32 6" pc_plus_8 [31:0] $end
$var wire 32 7" pc_plus_4 [31:0] $end
$var wire 32 8" pc_i [31:0] $end
$var wire 7 9" opcode [6:0] $end
$var wire 1 F mem_wreg_i $end
$var wire 32 :" mem_wdata_i [31:0] $end
$var wire 5 ;" mem_wd_i [4:0] $end
$var wire 32 <" j_type_imm [31:0] $end
$var wire 32 =" inst_i [31:0] $end
$var wire 32 >" i_type_imm [31:0] $end
$var wire 7 ?" funct7 [6:0] $end
$var wire 3 @" funct3 [2:0] $end
$var wire 32 A" b_type_imm [31:0] $end
$var reg 8 B" aluop_o [7:0] $end
$var reg 3 C" alusel_o [2:0] $end
$var reg 1 W branch_flag_o $end
$var reg 32 D" branch_target_address_o [31:0] $end
$var reg 32 E" imm [31:0] $end
$var reg 1 F" instvalid $end
$var reg 32 G" link_addr_o [31:0] $end
$var reg 5 H" reg1_addr_o [4:0] $end
$var reg 32 I" reg1_o [31:0] $end
$var reg 2 J" reg1_read_o [1:0] $end
$var reg 5 K" reg2_addr_o [4:0] $end
$var reg 32 L" reg2_o [31:0] $end
$var reg 2 M" reg2_read_o [1:0] $end
$var reg 1 N" stallreq_for_reg1 $end
$var reg 1 O" stallreq_for_reg2 $end
$var reg 1 : stallreq_from_jump_branch $end
$var reg 1 9 stallreq_from_load $end
$var reg 5 P" wd_o [4:0] $end
$var reg 1 O wreg_o $end
$upscope $end
$scope module id_ex0 $end
$var wire 1 ! clk $end
$var wire 8 Q" id_aluop [7:0] $end
$var wire 3 R" id_alusel [2:0] $end
$var wire 32 S" id_inst [31:0] $end
$var wire 32 T" id_link_address [31:0] $end
$var wire 32 U" id_reg1 [31:0] $end
$var wire 32 V" id_reg2 [31:0] $end
$var wire 5 W" id_wd [4:0] $end
$var wire 1 O id_wreg $end
$var wire 1 " rst $end
$var wire 6 X" stall [5:0] $end
$var reg 8 Y" ex_aluop [7:0] $end
$var reg 3 Z" ex_alusel [2:0] $end
$var reg 32 [" ex_inst [31:0] $end
$var reg 32 \" ex_link_address [31:0] $end
$var reg 32 ]" ex_reg1 [31:0] $end
$var reg 32 ^" ex_reg2 [31:0] $end
$var reg 5 _" ex_wd [4:0] $end
$var reg 1 [ ex_wreg $end
$upscope $end
$scope module if_id0 $end
$var wire 1 ! clk $end
$var wire 32 `" if_inst [31:0] $end
$var wire 1 " rst $end
$var wire 6 a" stall [5:0] $end
$var wire 32 b" if_pc [31:0] $end
$var reg 32 c" id_inst [31:0] $end
$var reg 32 d" id_pc [31:0] $end
$upscope $end
$scope module mem1 $end
$var wire 8 e" aluop_i [7:0] $end
$var wire 32 f" mem_addr_i [31:0] $end
$var wire 32 g" mem_data_i [31:0] $end
$var wire 32 h" reg2_i [31:0] $end
$var wire 1 " rst $end
$var wire 5 i" wd_i [4:0] $end
$var wire 32 j" wdata_i [31:0] $end
$var wire 1 G wreg_i $end
$var reg 32 k" mem_addr_o [31:0] $end
$var reg 1 ( mem_ce_o $end
$var reg 32 l" mem_data_o [31:0] $end
$var reg 4 m" mem_sel_o [3:0] $end
$var reg 1 $ mem_we_o $end
$var reg 5 n" wd_o [4:0] $end
$var reg 32 o" wdata_o [31:0] $end
$var reg 1 F wreg_o $end
$upscope $end
$scope module mem_wb0 $end
$var wire 1 ! clk $end
$var wire 5 p" mem_wd [4:0] $end
$var wire 32 q" mem_wdata [31:0] $end
$var wire 1 F mem_wreg $end
$var wire 1 " rst $end
$var wire 6 r" stall [5:0] $end
$var reg 5 s" wb_wd [4:0] $end
$var reg 32 t" wb_wdata [31:0] $end
$var reg 1 6 wb_wreg $end
$upscope $end
$scope module pc_reg0 $end
$var wire 1 W branch_flag_i $end
$var wire 32 u" branch_target_address_i [31:0] $end
$var wire 1 ! clk $end
$var wire 1 " rst $end
$var wire 6 v" stall [5:0] $end
$var reg 1 # ce $end
$var reg 32 w" pc [31:0] $end
$upscope $end
$scope module regfile0 $end
$var wire 1 ! clk $end
$var wire 5 x" raddr1 [4:0] $end
$var wire 5 y" raddr2 [4:0] $end
$var wire 2 z" re1 [1:0] $end
$var wire 2 {" re2 [1:0] $end
$var wire 1 " rst $end
$var wire 5 |" waddr [4:0] $end
$var wire 32 }" wdata [31:0] $end
$var wire 1 6 we $end
$var reg 32 ~" rdata1 [31:0] $end
$var reg 32 !# rdata2 [31:0] $end
$upscope $end
$upscope $end
$upscope $end
$upscope $end
$enddefinitions $end
#0
$dumpvars
b0 !#
b0 ~"
bx }"
bx |"
b1 {"
b1 z"
b0 y"
b0 x"
bx w"
b0 v"
b0 u"
bx t"
bx s"
b0 r"
b0 q"
b0 p"
b0 o"
b0 n"
b0 m"
b0 l"
b0 k"
bx j"
bx i"
bx h"
b0 g"
bx f"
bx e"
bx d"
bx c"
bx b"
b0 a"
bx `"
bx _"
bx ^"
bx ]"
bx \"
bx ["
bx Z"
bx Y"
b0 X"
b0 W"
b0 V"
b0 U"
b0 T"
bx S"
b0 R"
b0 Q"
b0 P"
0O"
0N"
b1 M"
b0 L"
b0 K"
b1 J"
b0 I"
b0 H"
b0 G"
0F"
b0 E"
b0 D"
b0 C"
b0 B"
bx0 A"
bx @"
bx ?"
bx >"
bx ="
bx0 <"
b0 ;"
b0 :"
bx 9"
bx 8"
bx 7"
bx 6"
bx 5"
bx 4"
bx 3"
b0 2"
b0 1"
bx 0"
bx /"
bx ."
bx000000000000 -"
bx ,"
b0 +"
bx *"
bx )"
bx ("
bx '"
bx &"
bx %"
b0 $"
b0 #"
bx ""
bx !"
bx ~
bx }
b0 |
bx {
b0 z
b0 y
b0 x
bx w
bx v
bx u
bx t
bx s
bx r
xq
bx p
bx o
bx n
bx m
bx l
bx k
b0 j
b0 i
bx h
bx g
bx f
bx e
xd
bx c
bx b
bx a
bx `
bx _
bx ^
bx ]
b0 \
x[
xZ
b0 Y
b0 X
0W
bx V
bx U
b0 T
bx S
b0 R
b0 Q
b0 P
0O
bx N
bx M
bx L
bx K
b0 J
bx I
b0 H
xG
0F
bx E
b0 D
b0 C
b0 B
b0 A
b0 @
b1 ?
b0 >
b0 =
b1 <
b0 ;
0:
09
bx 8
bx 7
x6
bx 5
bx 4
b0 3
b1000000000000 2
bx 1
b0 0
b0 /
b0 .
b0 -
bx ,
bx +
bx *
b0 )
0(
b0 '
b0 &
b0 %
0$
x#
1"
0!
$end
#10000
b0 +
b0 1
b0 5
b0 `"
0Z
b0 ]
b0 {
b0 ""
b0 *"
b0 4"
b0 <"
b0 -"
b0 A"
b0 ."
b0 5"
b0 >"
b0 9"
b0 3"
b0 @"
b0 0"
b0 /"
b0 ?"
b0 n
b0 o
0q
0#
b0 U
b0 ,"
b0 S"
b0 V
b0 ="
b0 c"
b100 7"
b1000 6"
b0 S
b0 8"
b0 d"
0[
b0 ^
b0 m
b0 _"
b0 _
b0 l
b0 !"
b0 `
b0 p
b0 ^"
b0 a
b0 r
b0 ]"
b0 f
b0 v
b0 Z"
b0 g
b0 k
b0 }
b0 h
b0 w
b0 Y"
b0 L
b0 '"
b0 h"
b0 M
b0 &"
b0 f"
b0 N
b0 %"
b0 e"
b0 I
b0 )"
b0 j"
0G
b0 K
b0 ("
b0 i"
b0 7
b0 t"
b0 }"
06
b0 8
b0 s"
b0 |"
1!
#20000
0!
#30000
b0 *
b0 ,
b0 4
b0 E
b0 b"
b0 w"
1!
#40000
0!
#50000
1!
#60000
0!
#70000
1!
#80000
0!
#90000
1!
#100000
0!
#110000
1!
#120000
0!
#130000
1!
#140000
0!
#150000
1!
#160000
0!
#170000
1!
#180000
0!
#190000
1!
#195000
1F"
0"
#200000
0!
#210000
b100001000000000110000010010011 +
b100001000000000110000010010011 1
b100001000000000110000010010011 5
b100001000000000110000010010011 `"
0d
b0 b
b0 s
b0 ~
1#
b0 e
b0 u
b0 ["
b0 c
b0 t
b0 \"
bx M
bx &"
bx f"
1!
#220000
0!
#230000
b1000010000 Q
b1000010000 L"
b1000010000 V"
b1000010000 E"
b1 X
b1 C"
b1 R"
b10 Y
b10 B"
b10 Q"
0F"
b0 ?
b0 J"
b0 z"
1O
b10000 >
b10000 K"
b10000 y"
b1 P
b1 P"
b1 W"
b10000100001110000100010011 +
b10000100001110000100010011 1
b10000100001110000100010011 5
b10000100001110000100010011 `"
b110001000010000 4"
b110001000010000 <"
b100001000000000110000000000000 -"
b101000000000 A"
b1000000001 ."
b1000010000 5"
b1000010000 >"
b10011 9"
b1 3"
b110 @"
b10000 /"
b10000 ?"
b0 M
b0 &"
b0 f"
b100001000000000110000010010011 U
b100001000000000110000010010011 ,"
b100001000000000110000010010011 S"
b100001000000000110000010010011 V
b100001000000000110000010010011 ="
b100001000000000110000010010011 c"
b100 *
b100 ,
b100 4
b100 E
b100 b"
b100 w"
1!
#240000
0!
#250000
b1000010000 R
b1000010000 I"
b1000010000 U"
bx @
bx 2"
bx ~"
b100001 Q
b100001 L"
b100001 V"
b1000010000 \
b1000010000 |
b1000010000 #"
b1000010000 +"
b1 >
b1 K"
b1 y"
b1 A
b1 H"
b1 x"
b10 P
b10 P"
b10 W"
b100010001000110010011 +
b100010001000110010011 1
b100010001000110010011 5
b100010001000110010011 `"
b100001 E"
b0 ?
b0 J"
b0 z"
0F"
1O
b1 X
b1 C"
b1 R"
b10 Y
b10 B"
b10 Q"
1Z
b1 ]
b1 {
b1 ""
b1 *"
b1000010000 y
b1000000001 b
b1000000001 s
b1000000001 ~
b1110100000100000 <"
b10000100001110000000000000 -"
b100010 A"
b100010 ."
b100001 >"
b10 3"
b1 0"
b1 /"
b1 ?"
1q
b1000010000 n
b1000010000 o
b1000 *
b1000 ,
b1000 4
b1000 E
b1000 b"
b1000 w"
b10000100001110000100010011 U
b10000100001110000100010011 ,"
b10000100001110000100010011 S"
b10000100001110000100010011 V
b10000100001110000100010011 ="
b10000100001110000100010011 c"
b1110100000100100 4"
b100101 5"
b1000 7"
b1100 6"
b100 S
b100 8"
b100 d"
b100001000000000110000010010011 e
b100001000000000110000010010011 u
b100001000000000110000010010011 ["
1[
b1 ^
b1 m
b1 _"
b1000010000 _
b1000010000 l
b1000010000 !"
b1000010000 `
b1000010000 p
b1000010000 ^"
b1 f
b1 v
b1 Z"
b10 g
b10 k
b10 }
b10 h
b10 w
b10 Y"
1!
#260000
0!
#270000
b1000110001 R
b1000110001 I"
b1000110001 U"
b1000110001 \
b1000110001 |
b1000110001 #"
b1000110001 +"
b1 Q
b1 L"
b1 V"
b10 A
b10 H"
b10 x"
b11 P
b11 P"
b11 W"
b1000010000 H
b1000010000 :"
b1000010000 o"
b1000010000 q"
1F
b1 J
b1 ;"
b1 n"
b1 p"
b10 ]
b10 {
b10 ""
b10 *"
b1000110001 y
b1 E"
b0 ?
b0 J"
b0 z"
0F"
1O
b10 X
b10 C"
b10 R"
b111 Y
b111 B"
b111 Q"
b1010110100000011111001000010011 +
b1010110100000011111001000010011 1
b1010110100000011111001000010011 5
b1010110100000011111001000010011 `"
b100001 o
0q
b10001100000000000 <"
b100010001000000000000 -"
b100000000010 A"
b11 ."
b1 >"
b11 3"
b1 @"
b10 0"
b0 ?"
b1000010000 L
b1000010000 '"
b1000010000 h"
b1000000001 M
b1000000001 &"
b1000000001 f"
b10 N
b10 %"
b10 e"
b1000010000 I
b1000010000 )"
b1000010000 j"
1G
b1 K
b1 ("
b1 i"
b10000100001110000100010011 e
b10000100001110000100010011 u
b10000100001110000100010011 ["
b10 ^
b10 m
b10 _"
b100001 _
b100001 l
b100001 !"
b100001 `
b100001 p
b100001 ^"
b1000110001 n
b1000110010 b
b1000110010 s
b1000110010 ~
b1000010000 a
b1000010000 r
b1000010000 ]"
b100010001000110010011 U
b100010001000110010011 ,"
b100010001000110010011 S"
b100010001000110010011 V
b100010001000110010011 ="
b100010001000110010011 c"
b10001100000001000 4"
b1001 5"
b1100 7"
b10000 6"
b1000 S
b1000 8"
b1000 d"
b1100 *
b1100 ,
b1100 4
b1100 E
b1100 b"
b1100 w"
1!
#280000
0!
#290000
b10101101000 Q
b10101101000 L"
b10101101000 V"
b10001100010 R
b10001100010 I"
b10001100010 U"
b1000 >
b1000 K"
b1000 y"
b11 A
b11 H"
b11 x"
b100 P
b100 P"
b100 W"
b1101000101000000110001010010011 +
b1101000101000000110001010010011 1
b1101000101000000110001010010011 5
b1101000101000000110001010010011 `"
b10101101000 E"
b0 ?
b0 J"
b0 z"
0F"
1O
b1 X
b1 C"
b1 R"
b1 Y
b1 B"
b1 Q"
b10001100010 \
b10001100010 |
b10001100010 #"
b10001100010 +"
b11 ]
b11 {
b11 ""
b11 *"
b0 y
b10001100010 z
b1000110001 H
b1000110001 :"
b1000110001 o"
b1000110001 q"
b10 J
b10 ;"
b10 n"
b10 p"
b11111010101101000 <"
b1010110100000011111000000000000 -"
b10101100100 A"
b10101100100 ."
b10101101000 >"
b100 3"
b111 @"
b11 0"
b1000 /"
b101011 ?"
b1 o
b10000 *
b10000 ,
b10000 4
b10000 E
b10000 b"
b10000 w"
b1010110100000011111001000010011 U
b1010110100000011111001000010011 ,"
b1010110100000011111001000010011 S"
b1010110100000011111001000010011 V
b1010110100000011111001000010011 ="
b1010110100000011111001000010011 c"
b11111010101110100 4"
b10101110100 5"
b10000 7"
b10100 6"
b1100 S
b1100 8"
b1100 d"
b100010001000110010011 e
b100010001000110010011 u
b100010001000110010011 ["
b11 ^
b11 m
b11 _"
b1 _
b1 l
b1 !"
b1 `
b1 p
b1 ^"
b1000110010 n
b1000110100 b
b1000110100 s
b1000110100 ~
b1000110001 a
b1000110001 r
b1000110001 ]"
b10 f
b10 v
b10 Z"
b111 g
b111 k
b111 }
b111 h
b111 w
b111 Y"
b100001 L
b100001 '"
b100001 h"
b1000110010 M
b1000110010 &"
b1000110010 f"
b1000110001 I
b1000110001 )"
b1000110001 j"
b10 K
b10 ("
b10 i"
b1000010000 7
b1000010000 t"
b1000010000 }"
16
b1 8
b1 s"
b1 |"
1!
#300000
0!
#310000
b11010001010 Q
b11010001010 L"
b11010001010 V"
b0 R
b0 I"
b0 U"
b0 @
b0 2"
b0 ~"
b1010 >
b1010 K"
b1010 y"
b0 A
b0 H"
b0 x"
b101 P
b101 P"
b101 W"
b10001100010 H
b10001100010 :"
b10001100010 o"
b10001100010 q"
b11 J
b11 ;"
b11 n"
b11 p"
b10001100000 \
b10001100000 |
b10001100000 #"
b10001100000 +"
b100 ]
b100 {
b100 ""
b100 *"
b10001100000 y
b11010001010 E"
b0 ?
b0 J"
b0 z"
0F"
1O
b1 X
b1 C"
b1 R"
b10 Y
b10 B"
b10 Q"
b1011000000110001110010011 +
b1011000000110001110010011 1
b1011000000110001110010011 5
b1011000000110001110010011 `"
1q
b10101101000 o
b110011010001010 <"
b1101000101000000110000000000000 -"
b111010000100 A"
b11010000101 ."
b11010001010 >"
b101 3"
b110 @"
b0 0"
b1010 /"
b110100 ?"
b1000110001 7
b1000110001 t"
b1000110001 }"
b10 8
b10 s"
b10 |"
b1 L
b1 '"
b1 h"
b1000110100 M
b1000110100 &"
b1000110100 f"
b111 N
b111 %"
b111 e"
b10001100010 I
b10001100010 )"
b10001100010 j"
b11 K
b11 ("
b11 i"
b1010110100000011111001000010011 e
b1010110100000011111001000010011 u
b1010110100000011111001000010011 ["
b100 ^
b100 m
b100 _"
b10101101000 _
b10101101000 l
b10101101000 !"
b10101101000 `
b10101101000 p
b10101101000 ^"
b100111001010 n
b100111000110 b
b100111000110 s
b100111000110 ~
b10001100010 a
b10001100010 r
b10001100010 ]"
b1 f
b1 v
b1 Z"
b1 g
b1 k
b1 }
b1 h
b1 w
b1 Y"
b1101000101000000110001010010011 U
b1101000101000000110001010010011 ,"
b1101000101000000110001010010011 S"
b1101000101000000110001010010011 V
b1101000101000000110001010010011 ="
b1101000101000000110001010010011 c"
b110011010011010 4"
b11010011010 5"
b10100 7"
b11000 6"
b10000 S
b10000 8"
b10000 d"
b10100 *
b10100 ,
b10100 4
b10100 E
b10100 b"
b10100 w"
1!
#320000
0!
#330000
b11010001010 \
b11010001010 |
b11010001010 #"
b11010001010 +"
b10110 Q
b10110 L"
b10110 V"
b10110 >
b10110 K"
b10110 y"
b111 P
b111 P"
b111 W"
b11100101001001010110011 +
b11100101001001010110011 1
b11100101001001010110011 5
b11100101001001010110011 `"
b10110 E"
b0 ?
b0 J"
b0 z"
0F"
1O
b1 X
b1 C"
b1 R"
b10 Y
b10 B"
b10 Q"
b101 ]
b101 {
b101 ""
b101 *"
b11010001010 y
b10001100000 H
b10001100000 :"
b10001100000 o"
b10001100000 q"
b100 J
b100 ;"
b100 n"
b100 p"
b110000000010110 <"
b1011000000110000000000000 -"
b100000000110 A"
b111 ."
b10110 >"
b111 3"
b10110 /"
b0 ?"
b11010001010 o
b11000 *
b11000 ,
b11000 4
b11000 E
b11000 b"
b11000 w"
b1011000000110001110010011 U
b1011000000110001110010011 ,"
b1011000000110001110010011 S"
b1011000000110001110010011 V
b1011000000110001110010011 ="
b1011000000110001110010011 c"
b110000000101010 4"
b101010 5"
b11000 7"
b11100 6"
b10100 S
b10100 8"
b10100 d"
b1101000101000000110001010010011 e
b1101000101000000110001010010011 u
b1101000101000000110001010010011 ["
b101 ^
b101 m
b101 _"
b11010001010 _
b11010001010 l
b11010001010 !"
b11010001010 `
b11010001010 p
b11010001010 ^"
b11010001010 n
b11010000101 b
b11010000101 s
b11010000101 ~
b0 a
b0 r
b0 ]"
b10 g
b10 k
b10 }
b10 h
b10 w
b10 Y"
b10101101000 L
b10101101000 '"
b10101101000 h"
b100111000110 M
b100111000110 &"
b100111000110 f"
b1 N
b1 %"
b1 e"
b10001100000 I
b10001100000 )"
b10001100000 j"
b100 K
b100 ("
b100 i"
b10001100010 7
b10001100010 t"
b10001100010 }"
b11 8
b11 s"
b11 |"
1!
#340000
0!
#350000
bx =
bx 1"
bx !#
b10110 \
b10110 |
b10110 #"
b10110 +"
b10110 Q
b10110 L"
b10110 V"
b11010001010 R
b11010001010 I"
b11010001010 U"
bx @
bx 2"
bx ~"
b0 <
b0 M"
b0 {"
b111 >
b111 K"
b111 y"
b101 A
b101 H"
b101 x"
b101 P
b101 P"
b101 W"
b11010001010 H
b11010001010 :"
b11010001010 o"
b11010001010 q"
b101 J
b101 ;"
b101 n"
b101 p"
b111 ]
b111 {
b111 ""
b111 *"
b10110 y
b0 E"
b0 ?
b0 J"
b0 z"
0F"
1O
b10 X
b10 C"
b10 R"
b111 Y
b111 B"
b111 Q"
b1010000000110001110010011 +
b1010000000110001110010011 1
b1010000000110001110010011 5
b1010000000110001110010011 `"
b111 b
b111 s
b111 ~
b10110 n
b10110 o
b101001100000000110 <"
b11100101001000000000000 -"
b100000000100 A"
b101 ."
b111 >"
b110011 9"
b101 3"
b1 @"
b101 0"
b111 /"
b10001100000 7
b10001100000 t"
b10001100000 }"
b100 8
b100 s"
b100 |"
b11010001010 L
b11010001010 '"
b11010001010 h"
b11010000101 M
b11010000101 &"
b11010000101 f"
b10 N
b10 %"
b10 e"
b11010001010 I
b11010001010 )"
b11010001010 j"
b101 K
b101 ("
b101 i"
b1011000000110001110010011 e
b1011000000110001110010011 u
b1011000000110001110010011 ["
b111 ^
b111 m
b111 _"
b10110 _
b10110 l
b10110 !"
b10110 `
b10110 p
b10110 ^"
b11100101001001010110011 U
b11100101001001010110011 ,"
b11100101001001010110011 S"
b11100101001001010110011 V
b11100101001001010110011 ="
b11100101001001010110011 c"
b101001100000011110 4"
b11111 5"
b11100 7"
b100000 6"
b11000 S
b11000 8"
b11000 d"
b11100 *
b11100 ,
b11100 4
b11100 E
b11100 b"
b11100 w"
1!
#360000
0!
#370000
b0 R
b0 I"
b0 U"
b0 =
b0 1"
b0 !#
b10100 Q
b10100 L"
b10100 V"
b10100 E"
b10100 >
b10100 K"
b10100 y"
b0 A
b0 H"
b0 x"
b111 P
b111 P"
b111 W"
b1000000011100101101001100110011 +
b1000000011100101101001100110011 1
b1000000011100101101001100110011 5
b1000000011100101101001100110011 `"
b1 <
b1 M"
b1 {"
b0 ?
b0 J"
b0 z"
0F"
1O
b1 X
b1 C"
b1 R"
b10 Y
b10 B"
b10 Q"
b10100010100000000000000000000000 \
b10100010100000000000000000000000 |
b10100010100000000000000000000000 #"
b10100010100000000000000000000000 +"
b101 ]
b101 {
b101 ""
b101 *"
b0 y
b10100010100000000000000000000000 z
b10110 H
b10110 :"
b10110 o"
b10110 q"
b111 J
b111 ;"
b111 n"
b111 p"
b0 @
b0 2"
b0 ~"
b110000000010100 <"
b1010000000110000000000000 -"
b100000000110 A"
b111 ."
b10100 >"
b10011 9"
b111 3"
b110 @"
b0 0"
b10100 /"
0q
b100000 *
b100000 ,
b100000 4
b100000 E
b100000 b"
b100000 w"
b1010000000110001110010011 U
b1010000000110001110010011 ,"
b1010000000110001110010011 S"
b1010000000110001110010011 V
b1010000000110001110010011 ="
b1010000000110001110010011 c"
b110000000110000 4"
b110000 5"
b100000 7"
b100100 6"
b11100 S
b11100 8"
b11100 d"
b11100101001001010110011 e
b11100101001001010110011 u
b11100101001001010110011 ["
b101 ^
b101 m
b101 _"
b11010100000 n
b11010001111 b
b11010001111 s
b11010001111 ~
b11010001010 a
b11010001010 r
b11010001010 ]"
b10 f
b10 v
b10 Z"
b111 g
b111 k
b111 }
b111 h
b111 w
b111 Y"
b10110 L
b10110 '"
b10110 h"
b111 M
b111 &"
b111 f"
b10110 I
b10110 )"
b10110 j"
b111 K
b111 ("
b111 i"
b11010001010 7
b11010001010 t"
b11010001010 }"
b101 8
b101 s"
b101 |"
1!
#380000
0!
